{
  "backend_secret": "dev",
  "backend_port": 50321,
  "port": 50320,
  "app_dir": "file:///",
  "url": "http://localhost:50320/",
  "forum": {
    "threads_per_page": 20,
    "posts_per_page": 15
  },
  "is_production": false
}
